<svg width="27" height="39" viewBox="0 0 27 39" fill="none" xmlns="http://www.w3.org/2000/svg">
<path d="M22.5644 0L15.3 10.8643H18.9001L27.0001 0H22.5644Z" fill="#428BC1"/>
<path d="M18.9002 0L11.7002 10.8643H15.3002L22.5645 0H18.9002Z" fill="#E8E8E8"/>
<path d="M15.2999 0L8.09985 10.8643H11.6999L18.8999 0H15.2999Z" fill="#ED4C5C"/>
<path d="M13.5002 38.5716C20.8141 38.5716 26.7432 32.6425 26.7432 25.3287C26.7432 18.0148 20.8141 12.0858 13.5002 12.0858C6.18638 12.0858 0.257324 18.0148 0.257324 25.3287C0.257324 32.6425 6.18638 38.5716 13.5002 38.5716Z" fill="#FFCE31"/>
<path d="M6.87911 8.42145C6.55768 8.42145 6.30054 8.67859 6.30054 9.00002V14.4C6.30054 14.7215 6.55768 14.9786 6.87911 14.9786H20.122C20.4435 14.9786 20.7006 14.7215 20.7006 14.4V9.00002C20.7006 8.67859 20.4435 8.42145 20.122 8.42145H6.87911ZM19.5435 12.6643C19.5435 12.9858 19.2863 13.2429 18.9649 13.2429H8.10055C7.77912 13.2429 7.52197 12.9858 7.52197 12.6643V10.2215C7.52197 9.90003 7.77912 9.64288 8.10055 9.64288H18.9649C19.2863 9.64288 19.5435 9.90003 19.5435 10.2215V12.6643Z" fill="#FFCE31"/>
<path opacity="0.5" d="M2.12138 26.8715C2.12138 19.6715 7.64997 13.8215 14.7214 13.3072C14.4 13.3072 14.0143 13.2429 13.6929 13.2429C6.94283 13.2429 1.47852 18.7072 1.47852 25.5215C1.47852 27.5144 1.9928 29.443 2.82852 31.1144C2.37852 29.7644 2.12138 28.3501 2.12138 26.8715" fill="#89664C"/>
<path opacity="0.33" d="M18.5784 35.5501C24.557 31.5644 26.357 23.7858 22.8856 17.7429L23.4642 18.5144C27.1928 24.0429 25.6499 31.5644 20.057 35.3573C18.3856 36.5144 16.5213 37.1573 14.657 37.3502C16.0713 36.9644 17.357 36.3859 18.5784 35.5501" fill="white"/>
<path d="M8.10004 10.8643H11.7001L4.43573 0H0L8.10004 10.8643Z" fill="#ED4C5C"/>
<path d="M11.7004 10.8643H15.3004L8.10034 0H4.43604L11.7004 10.8643Z" fill="#E8E8E8"/>
<path opacity="0.5" d="M14.0783 1.80003L12.2783 4.50005L16.5212 10.8644H18.8998L19.5426 9.96436L14.0783 1.80003Z" fill="#3E4347"/>
<path d="M15.2999 10.8643H18.8999L11.6999 0H8.09985L15.2999 10.8643Z" fill="#428BC1"/>
<path opacity="0.5" d="M10.157 21.343V21.9858C10.7998 21.9858 11.3784 21.8573 11.957 21.6001V20.7001C11.4427 21.0858 10.8641 21.2787 10.157 21.343Z" fill="#89664C"/>
<path opacity="0.5" d="M14.3997 17.1644H14.9782V31.0501H14.3997V17.1644Z" fill="#89664C"/>
<path opacity="0.5" d="M16.8427 31.6287V33.4287H10.157V34.0716H17.4213V31.6287H16.8427Z" fill="#89664C"/>
<path opacity="0.33" d="M14.9785 31.0501H16.7785V31.6287H14.9785V31.0501Z" fill="white"/>
<path opacity="0.33" d="M12.5999 17.1644H14.3999V16.5858H11.957C11.957 17.9358 10.8642 19.0287 9.51416 19.0287V21.4072C9.70702 21.4072 9.89988 21.4072 10.0927 21.343V19.5429C11.507 19.6072 12.5999 18.5144 12.5999 17.1644" fill="white"/>
<path opacity="0.33" d="M12.5996 31.6287V21.343C12.4067 21.4715 12.2139 21.5358 12.021 21.6644V31.0501H9.57812V33.4287H10.1567V31.6287H12.5996Z" fill="white"/>
</svg>
