<svg width="18" height="21" viewBox="0 0 18 21" fill="none" xmlns="http://www.w3.org/2000/svg">
<path d="M8.99993 0C0.224277 0.00151367 1.002 9.12588 1.002 21H17.002C17.002 9.12588 17.7762 -0.00151339 8.99993 0Z" fill="#77CFB3" fill-opacity="0.7"/>
<path d="M12.35 4L9.55005 8.225H10.95L13.775 4H12.35Z" fill="#E8E8E8"/>
<path d="M10.9499 4L8.1499 8.225H9.5499L12.3499 4H10.9499Z" fill="#ED4C5C"/>
<path d="M7.6752 7.27499C7.5502 7.27499 7.4502 7.37499 7.4502 7.49999V9.59999C7.4502 9.72499 7.5502 9.82499 7.6752 9.82499H12.8252C12.9502 9.82499 13.0502 9.72499 13.0502 9.59999V7.49999C13.0502 7.37499 12.9502 7.27499 12.8252 7.27499H7.6752ZM12.6002 8.92499C12.6002 9.04999 12.5002 9.14999 12.3752 9.14999H8.1502C8.0252 9.14999 7.9252 9.04999 7.9252 8.92499V7.97499C7.9252 7.84999 8.0252 7.74999 8.1502 7.74999H12.3752C12.5002 7.74999 12.6002 7.84999 12.6002 7.97499V8.92499Z" fill="#B2C1C0"/>
<path d="M8.15 8.225H9.55L6.725 4H5L8.15 8.225Z" fill="#ED4C5C"/>
<path d="M9.5501 8.225H10.9501L8.1501 4H6.7251L9.5501 8.225Z" fill="#E8E8E8"/>
<path opacity="0.5" d="M10.4749 4.70001L9.7749 5.75001L11.4249 8.22501H12.3499L12.5999 7.87501L10.4749 4.70001Z" fill="#3E4347"/>
<path d="M10.9499 8.225H12.3499L9.5499 4H8.1499L10.9499 8.225Z" fill="#428BC1"/>
<path opacity="0.5" d="M10.1251 11.375C9.6001 11.375 9.1751 11.8 9.1751 12.3H8.5001C8.5001 12.375 8.4751 12.45 8.4751 12.525H9.4251C9.4251 12 9.8501 11.575 10.3751 11.575C10.5751 11.575 10.7501 11.65 10.9001 11.75C10.7251 11.55 10.4501 11.375 10.1251 11.375" fill="#3E4347"/>
<path opacity="0.5" d="M12 17H8.5V17.25H12.25V16.3H12V17Z" fill="#3E4347"/>
<path opacity="0.33" d="M9.42505 16.075H12V16.3H9.42505V16.075Z" fill="white"/>
<path opacity="0.33" d="M10.3749 13.5C10.8999 13.5 11.3249 13.075 11.3249 12.55C11.3249 12.225 11.1749 11.95 10.9249 11.775C11.0249 11.925 11.0999 12.1 11.0999 12.3C11.0999 12.825 10.6749 13.25 10.1499 13.25C9.1249 13.25 8.2749 14.1 8.2749 15.125V17H8.4999V15.35C8.4999 14.325 9.3249 13.5 10.3749 13.5Z" fill="white"/>
<path opacity="0.33" d="M10.375 10.675C10.825 10.675 11.25 10.85 11.575 11.125C11.225 10.725 10.725 10.45 10.125 10.45C9.1 10.45 8.25 11.3 8.25 12.325H8.5C8.625 11.4 9.4 10.675 10.375 10.675" fill="white"/>
<path d="M9 18C6.6 18 6.5 14.5 6.5 14.5V11.5H11.5V14.5C11.5 14.5 11.4 18 9 18Z" fill="#FF9800"/>
<path d="M13.5 9.5C14.0523 9.5 14.5 9.05228 14.5 8.5C14.5 7.94772 14.0523 7.5 13.5 7.5C12.9477 7.5 12.5 7.94772 12.5 8.5C12.5 9.05228 12.9477 9.5 13.5 9.5Z" fill="#FFA726"/>
<path d="M4.5 9.5C5.05228 9.5 5.5 9.05228 5.5 8.5C5.5 7.94772 5.05228 7.5 4.5 7.5C3.94772 7.5 3.5 7.94772 3.5 8.5C3.5 9.05228 3.94772 9.5 4.5 9.5Z" fill="#FFA726"/>
<path d="M13.5 5.49999C13.5 1.69999 4.5 2.99999 4.5 5.49999V8.99999C4.5 11.5 6.5 13.5 9 13.5C11.5 13.5 13.5 11.5 13.5 8.99999V5.49999Z" fill="#FFB74D"/>
<path d="M9 1C5.95 1 4 3.45 4 6.5V7.65L5 8.5V6L11 4L13 6V8.5L14 7.65V6.5C14 4.5 13.5 2.5 11 2L10.5 1H9Z" fill="#424242"/>
<path d="M11 9C11.2761 9 11.5 8.77614 11.5 8.5C11.5 8.22386 11.2761 8 11 8C10.7239 8 10.5 8.22386 10.5 8.5C10.5 8.77614 10.7239 9 11 9Z" fill="#784719"/>
<path d="M7 9C7.27614 9 7.5 8.77614 7.5 8.5C7.5 8.22386 7.27614 8 7 8C6.72386 8 6.5 8.22386 6.5 8.5C6.5 8.77614 6.72386 9 7 9Z" fill="#784719"/>
<path d="M11.5 14.5C11.5 14.5 10.6 15.5 9 15.5C7.4 15.5 6.5 14.5 6.5 14.5C6.5 14.5 1 15.5 1 21H17C17 15.5 11.5 14.5 11.5 14.5Z" fill="#009688"/>
</svg>
