<svg width="11" height="15" viewBox="0 0 11 15" fill="none" xmlns="http://www.w3.org/2000/svg">
<path d="M8.77495 0L5.94995 4.225H7.34995L10.5 0H8.77495Z" fill="#428BC1"/>
<path d="M7.35005 0L4.55005 4.225H5.95005L8.77505 0H7.35005Z" fill="#E8E8E8"/>
<path d="M5.9499 0L3.1499 4.225H4.5499L7.3499 0H5.9499Z" fill="#ED4C5C"/>
<path d="M5.2501 15C8.09436 15 10.4001 12.6942 10.4001 9.84998C10.4001 7.00572 8.09436 4.69998 5.2501 4.69998C2.40583 4.69998 0.100098 7.00572 0.100098 9.84998C0.100098 12.6942 2.40583 15 5.2501 15Z" fill="#B2C1C0"/>
<path d="M2.6752 3.27499C2.5502 3.27499 2.4502 3.37499 2.4502 3.49999V5.59999C2.4502 5.72499 2.5502 5.82499 2.6752 5.82499H7.8252C7.9502 5.82499 8.0502 5.72499 8.0502 5.59999V3.49999C8.0502 3.37499 7.9502 3.27499 7.8252 3.27499H2.6752ZM7.6002 4.92499C7.6002 5.04999 7.5002 5.14999 7.3752 5.14999H3.1502C3.0252 5.14999 2.9252 5.04999 2.9252 4.92499V3.97499C2.9252 3.84999 3.0252 3.74999 3.1502 3.74999H7.3752C7.5002 3.74999 7.6002 3.84999 7.6002 3.97499V4.92499Z" fill="#B2C1C0"/>
<path opacity="0.5" d="M0.824951 10.45C0.824951 7.64999 2.97495 5.37499 5.72495 5.17499C5.59995 5.17499 5.44995 5.14999 5.32495 5.14999C2.69995 5.14999 0.574951 7.27499 0.574951 9.92499C0.574951 10.7 0.774951 11.45 1.09995 12.1C0.924951 11.575 0.824951 11.025 0.824951 10.45Z" fill="#3E4347"/>
<path opacity="0.33" d="M7.22495 13.825C9.54995 12.275 10.25 9.24999 8.89995 6.89999C8.97495 6.99999 9.04995 7.09999 9.12495 7.22499C10.575 9.37499 9.97495 12.3 7.79995 13.775C7.14995 14.225 6.42495 14.475 5.69995 14.55C6.24995 14.375 6.74995 14.15 7.22495 13.825Z" fill="white"/>
<path d="M3.15 4.225H4.55L1.725 0H0L3.15 4.225Z" fill="#ED4C5C"/>
<path d="M4.5501 4.225H5.9501L3.1501 0H1.7251L4.5501 4.225Z" fill="#E8E8E8"/>
<path opacity="0.5" d="M5.4749 0.700012L4.7749 1.75001L6.4249 4.22501H7.3499L7.5999 3.87501L5.4749 0.700012Z" fill="#3E4347"/>
<path d="M5.9499 4.225H7.3499L4.5499 0H3.1499L5.9499 4.225Z" fill="#428BC1"/>
<path opacity="0.5" d="M5.1251 7.375C4.6001 7.375 4.1751 7.8 4.1751 8.3H3.5001C3.5001 8.375 3.4751 8.45 3.4751 8.525H4.4251C4.4251 8 4.8501 7.575 5.3751 7.575C5.5751 7.575 5.7501 7.65 5.9001 7.75C5.7251 7.55 5.4501 7.375 5.1251 7.375Z" fill="#3E4347"/>
<path opacity="0.5" d="M7 13H3.5V13.25H7.25V12.3H7V13Z" fill="#3E4347"/>
<path opacity="0.5" d="M5.12505 10.2C4.60005 10.2 4.17505 10.625 4.17505 11.15V12.1H4.40005V11.4C4.40005 10.875 4.82505 10.45 5.35005 10.45C6.37505 10.45 7.22505 9.6 7.22505 8.575C7.22505 8 6.97505 7.475 6.55005 7.125C6.82505 7.45 7.00005 7.875 7.00005 8.325C7.00005 9.35 6.17505 10.2 5.12505 10.2Z" fill="#3E4347"/>
<path opacity="0.33" d="M4.42505 12.075H7.00005V12.3H4.42505V12.075Z" fill="white"/>
<path opacity="0.33" d="M5.3749 9.50001C5.8999 9.50001 6.3249 9.07501 6.3249 8.55001C6.3249 8.22501 6.1749 7.95001 5.9249 7.77501C6.0249 7.92501 6.0999 8.10001 6.0999 8.30001C6.0999 8.82501 5.6749 9.25001 5.1499 9.25001C4.1249 9.25001 3.2749 10.1 3.2749 11.125V13H3.4999V11.35C3.4999 10.325 4.3249 9.50001 5.3749 9.50001Z" fill="white"/>
<path opacity="0.33" d="M5.375 6.67501C5.825 6.67501 6.25 6.85001 6.575 7.12501C6.225 6.72501 5.725 6.45001 5.125 6.45001C4.1 6.45001 3.25 7.30001 3.25 8.32501H3.5C3.625 7.40001 4.4 6.67501 5.375 6.67501Z" fill="white"/>
</svg>
